\relax 
\providecommand\hyper@newdestlabel[2]{}
\providecommand\HyperFirstAtBeginDocument{\AtBeginDocument}
\HyperFirstAtBeginDocument{\ifx\hyper@anchor\@undefined
\global\let\oldcontentsline\contentsline
\gdef\contentsline#1#2#3#4{\oldcontentsline{#1}{#2}{#3}}
\global\let\oldnewlabel\newlabel
\gdef\newlabel#1#2{\newlabelxx{#1}#2}
\gdef\newlabelxx#1#2#3#4#5#6{\oldnewlabel{#1}{{#2}{#3}}}
\AtEndDocument{\ifx\hyper@anchor\@undefined
\let\contentsline\oldcontentsline
\let\newlabel\oldnewlabel
\fi}
\fi}
\global\let\hyper@last\relax 
\gdef\HyperFirstAtBeginDocument#1{#1}
\providecommand\HyField@AuxAddToFields[1]{}
\providecommand\HyField@AuxAddToCoFields[2]{}
\@writefile{toc}{\contentsline {section}{\numberline {1}Theory of VAE}{1}{section.1}}
\@writefile{toc}{\contentsline {subsection}{\numberline {1.1}Graphical Model and Variational Method}{1}{subsection.1.1}}
\newlabel{f}{{2}{1}{Graphical Model and Variational Method}{equation.1.2}{}}
\citation{VAE}
\@writefile{toc}{\contentsline {subsection}{\numberline {1.2}Theory of Variational Autoencoder}{2}{subsection.1.2}}
\@writefile{toc}{\contentsline {subsubsection}{\numberline {1.2.1}ELBO as lower bound}{2}{subsubsection.1.2.1}}
\newlabel{d}{{6}{2}{ELBO as lower bound}{equation.1.6}{}}
\@writefile{toc}{\contentsline {subsubsection}{\numberline {1.2.2}Structure of VAE}{2}{subsubsection.1.2.2}}
\@writefile{lof}{\contentsline {figure}{\numberline {1}{\ignorespaces Structure of VAE\relax }}{2}{figure.caption.1}}
\providecommand*\caption@xref[2]{\@setref\relax\@undefined{#1}}
\newlabel{vae_structure}{{1}{2}{Structure of VAE\relax }{figure.caption.1}{}}
\@writefile{toc}{\contentsline {section}{\numberline {2}Experiment}{3}{section.2}}
\@writefile{toc}{\contentsline {subsection}{\numberline {2.1}Network Architecture}{3}{subsection.2.1}}
\@writefile{lof}{\contentsline {figure}{\numberline {2}{\ignorespaces VAE Models for MNIST dataset, (a) is the schematic of 1-layer VAE, (b) is the architecture of 1-layer VAE\relax }}{3}{figure.caption.2}}
\newlabel{fig:VAE Models1}{{2}{3}{VAE Models for MNIST dataset, (a) is the schematic of 1-layer VAE, (b) is the architecture of 1-layer VAE\relax }{figure.caption.2}{}}
\@writefile{lof}{\contentsline {subfigure}{\numberline{(a)}{\ignorespaces {1-layer Schematic}}}{3}{subfigure.2.1}}
\@writefile{lof}{\contentsline {subfigure}{\numberline{(b)}{\ignorespaces {1-layer VAE}}}{3}{subfigure.2.2}}
\@writefile{toc}{\contentsline {subsubsection}{\numberline {2.1.1}Reparameterization trick}{3}{subsubsection.2.1.1}}
\@writefile{toc}{\contentsline {subsubsection}{\numberline {2.1.2}Results}{3}{subsubsection.2.1.2}}
\@writefile{lof}{\contentsline {figure}{\numberline {3}{\ignorespaces VAE Models for MNIST dataset, (a) is the schematic of 2-layer VAE and (b) is the architecture of 2-layer VAE\relax }}{4}{figure.caption.3}}
\newlabel{fig:VAE Models2}{{3}{4}{VAE Models for MNIST dataset, (a) is the schematic of 2-layer VAE and (b) is the architecture of 2-layer VAE\relax }{figure.caption.3}{}}
\@writefile{lof}{\contentsline {subfigure}{\numberline{(a)}{\ignorespaces {2-layer Schematic}}}{4}{subfigure.3.1}}
\@writefile{lof}{\contentsline {subfigure}{\numberline{(b)}{\ignorespaces {2-layer VAE}}}{4}{subfigure.3.2}}
\@writefile{lof}{\contentsline {figure}{\numberline {4}{\ignorespaces Reconstructed images\relax }}{4}{figure.caption.4}}
\newlabel{fig:resultMNIST}{{4}{4}{Reconstructed images\relax }{figure.caption.4}{}}
\@writefile{lof}{\contentsline {subfigure}{\numberline{(a)}{\ignorespaces {MNIST}}}{4}{subfigure.4.1}}
\@writefile{lof}{\contentsline {subfigure}{\numberline{(b)}{\ignorespaces {StreetNumber}}}{4}{subfigure.4.2}}
\@writefile{lof}{\contentsline {figure}{\numberline {5}{\ignorespaces Generated images\relax }}{4}{figure.caption.5}}
\newlabel{fig:resultSTNB}{{5}{4}{Generated images\relax }{figure.caption.5}{}}
\@writefile{lof}{\contentsline {subfigure}{\numberline{(a)}{\ignorespaces {MNIST}}}{4}{subfigure.5.1}}
\@writefile{lof}{\contentsline {subfigure}{\numberline{(b)}{\ignorespaces {StreetNumber}}}{4}{subfigure.5.2}}
\@writefile{lof}{\contentsline {figure}{\numberline {6}{\ignorespaces Learning Curves\relax }}{5}{figure.caption.6}}
\newlabel{fig:loss}{{6}{5}{Learning Curves\relax }{figure.caption.6}{}}
\@writefile{lof}{\contentsline {subfigure}{\numberline{(a)}{\ignorespaces {Loss}}}{5}{subfigure.6.1}}
\@writefile{lof}{\contentsline {subfigure}{\numberline{(b)}{\ignorespaces {Likelihood}}}{5}{subfigure.6.2}}
\@writefile{lof}{\contentsline {figure}{\numberline {7}{\ignorespaces Likelihood of different parameters\relax }}{5}{figure.caption.7}}
\newlabel{fig:comparing}{{7}{5}{Likelihood of different parameters\relax }{figure.caption.7}{}}
\@writefile{lof}{\contentsline {subfigure}{\numberline{(a)}{\ignorespaces {Varying Hidden Size}}}{5}{subfigure.7.1}}
\@writefile{lof}{\contentsline {subfigure}{\numberline{(b)}{\ignorespaces {Varying Learning Rate}}}{5}{subfigure.7.2}}
\@writefile{toc}{\contentsline {subsection}{\numberline {2.2}Modifications}{5}{subsection.2.2}}
\@writefile{lof}{\contentsline {figure}{\numberline {8}{\ignorespaces Comparation of 1 and 2 layers VAE Model\relax }}{6}{figure.caption.8}}
\newlabel{1and2layer}{{8}{6}{Comparation of 1 and 2 layers VAE Model\relax }{figure.caption.8}{}}
\@writefile{toc}{\contentsline {subsubsection}{\numberline {2.2.1}Conditional VAE}{6}{subsubsection.2.2.1}}
\@writefile{lof}{\contentsline {figure}{\numberline {9}{\ignorespaces (a) Structure of CVAE. (b) CVAE result on MNIST conditional on label. Same label is shared with each row. (c) CVAE result on MNIST conditional on its central line. Same input line is shared with each row. Fill all other area based on this central line given.\relax }}{6}{figure.caption.9}}
\newlabel{fig:CVAE}{{9}{6}{(a) Structure of CVAE. (b) CVAE result on MNIST conditional on label. Same label is shared with each row. (c) CVAE result on MNIST conditional on its central line. Same input line is shared with each row. Fill all other area based on this central line given.\relax }{figure.caption.9}{}}
\@writefile{lof}{\contentsline {subfigure}{\numberline{(a)}{\ignorespaces {}}}{6}{subfigure.9.1}}
\@writefile{lof}{\contentsline {subfigure}{\numberline{(b)}{\ignorespaces {}}}{6}{subfigure.9.2}}
\@writefile{lof}{\contentsline {subfigure}{\numberline{(c)}{\ignorespaces {}}}{6}{subfigure.9.3}}
\@writefile{lof}{\contentsline {figure}{\numberline {10}{\ignorespaces (a) Style control on MNIST using cvae, same style are shared with each column with different number. (b) Style control on SVHN.\relax }}{7}{figure.caption.10}}
\newlabel{fig:CVAE_style}{{10}{7}{(a) Style control on MNIST using cvae, same style are shared with each column with different number. (b) Style control on SVHN.\relax }{figure.caption.10}{}}
\@writefile{lof}{\contentsline {subfigure}{\numberline{(a)}{\ignorespaces {}}}{7}{subfigure.10.1}}
\@writefile{lof}{\contentsline {subfigure}{\numberline{(b)}{\ignorespaces {}}}{7}{subfigure.10.2}}
\@writefile{toc}{\contentsline {subsubsection}{\numberline {2.2.2}PCA for Pre-processing}{7}{subsubsection.2.2.2}}
\@writefile{lof}{\contentsline {figure}{\numberline {11}{\ignorespaces MNIST Likelihood Comparison using Different PCA Dimensions\relax }}{7}{figure.caption.11}}
\newlabel{fig:likelihood}{{11}{7}{MNIST Likelihood Comparison using Different PCA Dimensions\relax }{figure.caption.11}{}}
\@writefile{toc}{\contentsline {subsection}{\numberline {2.3}Analysis on Latent variables}{8}{subsection.2.3}}
\@writefile{lof}{\contentsline {figure}{\numberline {12}{\ignorespaces Generated digits by uniformly sampling on 2-dimentional latent space\relax }}{8}{figure.caption.12}}
\newlabel{fig:unisampling}{{12}{8}{Generated digits by uniformly sampling on 2-dimentional latent space\relax }{figure.caption.12}{}}
\@writefile{lof}{\contentsline {subfigure}{\numberline{(a)}{\ignorespaces {}}}{8}{subfigure.12.1}}
\@writefile{lof}{\contentsline {subfigure}{\numberline{(b)}{\ignorespaces {}}}{8}{subfigure.12.2}}
\@writefile{lof}{\contentsline {figure}{\numberline {13}{\ignorespaces Clusters of training data in latent space\relax }}{8}{figure.caption.13}}
\newlabel{fig:clusters}{{13}{8}{Clusters of training data in latent space\relax }{figure.caption.13}{}}
\@writefile{lof}{\contentsline {subfigure}{\numberline{(a)}{\ignorespaces {}}}{8}{subfigure.13.1}}
\@writefile{lof}{\contentsline {subfigure}{\numberline{(b)}{\ignorespaces {}}}{8}{subfigure.13.2}}
\bibcite{VM}{1}
\bibcite{THESIS}{2}
\bibcite{VAE}{3}
\bibcite{IAF}{4}
\@writefile{toc}{\contentsline {subsection}{\numberline {2.4}VAE for denoising}{9}{subsection.2.4}}
\@writefile{lof}{\contentsline {figure}{\numberline {14}{\ignorespaces Denoised output\relax }}{9}{figure.caption.14}}
\newlabel{fig:denoising}{{14}{9}{Denoised output\relax }{figure.caption.14}{}}
\@writefile{lof}{\contentsline {subfigure}{\numberline{(a)}{\ignorespaces {Reconstructed image}}}{9}{subfigure.14.1}}
\@writefile{lof}{\contentsline {subfigure}{\numberline{(b)}{\ignorespaces {Generated image}}}{9}{subfigure.14.2}}
\@writefile{toc}{\contentsline {section}{\numberline {3}Summary and Discussion}{9}{section.3}}
\@writefile{toc}{\contentsline {section}{\numberline {4}Contribution}{9}{section.4}}
\bibcite{TRICK}{5}
\bibcite{VLAE}{6}
\bibcite{Semi}{7}
\bibcite{Tuto}{8}
