\relax 
\providecommand\hyper@newdestlabel[2]{}
\providecommand\HyperFirstAtBeginDocument{\AtBeginDocument}
\HyperFirstAtBeginDocument{\ifx\hyper@anchor\@undefined
\global\let\oldcontentsline\contentsline
\gdef\contentsline#1#2#3#4{\oldcontentsline{#1}{#2}{#3}}
\global\let\oldnewlabel\newlabel
\gdef\newlabel#1#2{\newlabelxx{#1}#2}
\gdef\newlabelxx#1#2#3#4#5#6{\oldnewlabel{#1}{{#2}{#3}}}
\AtEndDocument{\ifx\hyper@anchor\@undefined
\let\contentsline\oldcontentsline
\let\newlabel\oldnewlabel
\fi}
\fi}
\global\let\hyper@last\relax 
\gdef\HyperFirstAtBeginDocument#1{#1}
\providecommand\HyField@AuxAddToFields[1]{}
\providecommand\HyField@AuxAddToCoFields[2]{}
\@writefile{toc}{\contentsline {section}{\numberline {1}Theory}{1}{section.1}}
\@writefile{toc}{\contentsline {subsection}{\numberline {1.1}Graphical Model and Variational Method}{1}{subsection.1.1}}
\providecommand*\caption@xref[2]{\@setref\relax\@undefined{#1}}
\newlabel{graph}{{\caption@xref {graph}{ on input line 11}}{1}{Graphical Model and Variational Method}{figure.caption.1}{}}
\@writefile{lof}{\contentsline {figure}{\numberline {1}{\ignorespaces Directed graphical model.\relax }}{1}{figure.caption.1}}
\citation{VAE}
\newlabel{f}{{2}{2}{Graphical Model and Variational Method}{equation.1.2}{}}
\@writefile{toc}{\contentsline {subsection}{\numberline {1.2}Evidence Lower Bound in Variational Inference}{2}{subsection.1.2}}
\newlabel{d}{{6}{2}{Evidence Lower Bound in Variational Inference}{equation.1.6}{}}
\@writefile{toc}{\contentsline {subsection}{\numberline {1.3}Basics of Variational Autoencoder}{2}{subsection.1.3}}
\@writefile{toc}{\contentsline {subsubsection}{\numberline {1.3.1}Structure of VAE}{2}{subsubsection.1.3.1}}
\@writefile{toc}{\contentsline {subsubsection}{\numberline {1.3.2}Reparameterization trick}{2}{subsubsection.1.3.2}}
\@writefile{lof}{\contentsline {figure}{\numberline {2}{\ignorespaces Structure of VAE\relax }}{3}{figure.caption.2}}
\newlabel{vae_structure}{{2}{3}{Structure of VAE\relax }{figure.caption.2}{}}
\@writefile{toc}{\contentsline {section}{\numberline {2}Experiment}{3}{section.2}}
\@writefile{lof}{\contentsline {figure}{\numberline {3}{\ignorespaces MNIST sampling (epoch 1 and 30)\relax }}{3}{figure.caption.3}}
\newlabel{MNIST sampling}{{3}{3}{MNIST sampling (epoch 1 and 30)\relax }{figure.caption.3}{}}
\@writefile{lof}{\contentsline {figure}{\numberline {4}{\ignorespaces MNIST test (epoch 1 and 30)\relax }}{3}{figure.caption.4}}
\newlabel{MNIST test}{{4}{3}{MNIST test (epoch 1 and 30)\relax }{figure.caption.4}{}}
\@writefile{lof}{\contentsline {figure}{\numberline {5}{\ignorespaces OMNIGLOT sampling (epoch 1 and 40)\relax }}{4}{figure.caption.5}}
\newlabel{OMNIGLOT sampling}{{5}{4}{OMNIGLOT sampling (epoch 1 and 40)\relax }{figure.caption.5}{}}
\@writefile{lof}{\contentsline {figure}{\numberline {6}{\ignorespaces OMNIGLOT test (epoch 1 and 40)\relax }}{4}{figure.caption.6}}
\newlabel{OMNIGLOT test}{{6}{4}{OMNIGLOT test (epoch 1 and 40)\relax }{figure.caption.6}{}}
\@writefile{lof}{\contentsline {figure}{\numberline {7}{\ignorespaces Learning Curve\relax }}{4}{figure.caption.7}}
\newlabel{learning_curve}{{7}{4}{Learning Curve\relax }{figure.caption.7}{}}
\bibcite{VM}{1}
\bibcite{THESIS}{2}
\bibcite{VAE}{3}
\bibcite{IAF}{4}
\bibcite{TRICK}{5}
\bibcite{VLAE}{6}
\bibcite{Semi}{7}
\@writefile{toc}{\contentsline {section}{\numberline {3}Problems and Later Works}{5}{section.3}}
